%YAML 1.1
%TAG !u! tag:unity3d.com,2011:
--- !u!74 &7400000
AnimationClip:
  m_ObjectHideFlags: 0
  m_CorrespondingSourceObject: {fileID: 0}
  m_PrefabInstance: {fileID: 0}
  m_PrefabAsset: {fileID: 0}
  m_Name: MiniFlower_Spit
  serializedVersion: 6
  m_Legacy: 0
  m_Compressed: 0
  m_UseHighQualityCurve: 1
  m_RotationCurves: []
  m_CompressedRotationCurves: []
  m_EulerCurves: []
  m_PositionCurves: []
  m_ScaleCurves: []
  m_FloatCurves: []
  m_PPtrCurves:
  - curve:
    - time: 0
      value: {fileID: 21300000, guid: 962b5bf524a514d42b1692e9d680c61e, type: 3}
    - time: 0.083333336
      value: {fileID: 21300000, guid: ee74e25f68d6f244391a735f3c215f18, type: 3}
    - time: 0.16666667
      value: {fileID: 21300000, guid: dab068dcbfa404643997d87def39e28d, type: 3}
    - time: 0.25
      value: {fileID: 21300000, guid: 9a8ee6213331b8b4b8b2fe5807032af9, type: 3}
    - time: 0.33333334
      value: {fileID: 21300000, guid: 36cf258a272de3748894129457a1f1a8, type: 3}
    - time: 0.41666666
      value: {fileID: 21300000, guid: 5eb4e357d2488354b92a85bbaf694d1a, type: 3}
    - time: 0.5
      value: {fileID: 21300000, guid: c1a6d4dcdb525aa42a60d1a5b4b1455f, type: 3}
    - time: 0.5833333
      value: {fileID: 21300000, guid: cfaa35674d7bb7240b4ef75078e192b1, type: 3}
    - time: 0.6666667
      value: {fileID: 21300000, guid: e22c5db29051b084482542047dff39cd, type: 3}
    - time: 0.75
      value: {fileID: 21300000, guid: d65d6c083fca3cf48a64f3c95350a933, type: 3}
    - time: 0.8333333
      value: {fileID: 21300000, guid: 3a5d0122388584241b37d9cf45c226f9, type: 3}
    - time: 0.9166667
      value: {fileID: 21300000, guid: 55b5bfbb6637c3844a16bb9f3e749499, type: 3}
    - time: 1
      value: {fileID: 21300000, guid: f5affddb3026f3744b1a66247c2e5f0b, type: 3}
    - time: 1.0833334
      value: {fileID: 21300000, guid: 79420e35ccec9e74b97a246eae39b8d4, type: 3}
    - time: 1.1666666
      value: {fileID: 21300000, guid: 4e63a5227bbe8db4aa0235f18791ac1f, type: 3}
    - time: 1.25
      value: {fileID: 21300000, guid: d85b2725f190ad2488ede0816c7170e4, type: 3}
    - time: 1.3333334
      value: {fileID: 21300000, guid: a946da956bc045647829f688a0688877, type: 3}
    - time: 1.4166666
      value: {fileID: 21300000, guid: b9d829d0a20a85f4393f7bcfb111c82e, type: 3}
    attribute: m_Sprite
    path: 
    classID: 212
    script: {fileID: 0}
  m_SampleRate: 12
  m_WrapMode: 0
  m_Bounds:
    m_Center: {x: 0, y: 0, z: 0}
    m_Extent: {x: 0, y: 0, z: 0}
  m_ClipBindingConstant:
    genericBindings:
    - serializedVersion: 2
      path: 0
      attribute: 0
      script: {fileID: 0}
      typeID: 212
      customType: 23
      isPPtrCurve: 1
    pptrCurveMapping:
    - {fileID: 21300000, guid: 962b5bf524a514d42b1692e9d680c61e, type: 3}
    - {fileID: 21300000, guid: ee74e25f68d6f244391a735f3c215f18, type: 3}
    - {fileID: 21300000, guid: dab068dcbfa404643997d87def39e28d, type: 3}
    - {fileID: 21300000, guid: 9a8ee6213331b8b4b8b2fe5807032af9, type: 3}
    - {fileID: 21300000, guid: 36cf258a272de3748894129457a1f1a8, type: 3}
    - {fileID: 21300000, guid: 5eb4e357d2488354b92a85bbaf694d1a, type: 3}
    - {fileID: 21300000, guid: c1a6d4dcdb525aa42a60d1a5b4b1455f, type: 3}
    - {fileID: 21300000, guid: cfaa35674d7bb7240b4ef75078e192b1, type: 3}
    - {fileID: 21300000, guid: e22c5db29051b084482542047dff39cd, type: 3}
    - {fileID: 21300000, guid: d65d6c083fca3cf48a64f3c95350a933, type: 3}
    - {fileID: 21300000, guid: 3a5d0122388584241b37d9cf45c226f9, type: 3}
    - {fileID: 21300000, guid: 55b5bfbb6637c3844a16bb9f3e749499, type: 3}
    - {fileID: 21300000, guid: f5affddb3026f3744b1a66247c2e5f0b, type: 3}
    - {fileID: 21300000, guid: 79420e35ccec9e74b97a246eae39b8d4, type: 3}
    - {fileID: 21300000, guid: 4e63a5227bbe8db4aa0235f18791ac1f, type: 3}
    - {fileID: 21300000, guid: d85b2725f190ad2488ede0816c7170e4, type: 3}
    - {fileID: 21300000, guid: a946da956bc045647829f688a0688877, type: 3}
    - {fileID: 21300000, guid: b9d829d0a20a85f4393f7bcfb111c82e, type: 3}
  m_AnimationClipSettings:
    serializedVersion: 2
    m_AdditiveReferencePoseClip: {fileID: 0}
    m_AdditiveReferencePoseTime: 0
    m_StartTime: 0
    m_StopTime: 1.5
    m_OrientationOffsetY: 0
    m_Level: 0
    m_CycleOffset: 0
    m_HasAdditiveReferencePose: 0
    m_LoopTime: 1
    m_LoopBlend: 0
    m_LoopBlendOrientation: 0
    m_LoopBlendPositionY: 0
    m_LoopBlendPositionXZ: 0
    m_KeepOriginalOrientation: 0
    m_KeepOriginalPositionY: 1
    m_KeepOriginalPositionXZ: 0
    m_HeightFromFeet: 0
    m_Mirror: 0
  m_EditorCurves: []
  m_EulerEditorCurves: []
  m_HasGenericRootTransform: 0
  m_HasMotionFloatCurves: 0
  m_Events:
  - time: 0.75
    functionName: SpawnMiniFlowerProjectile
    data: 
    objectReferenceParameter: {fileID: 0}
    floatParameter: 0
    intParameter: 0
    messageOptions: 0
  - time: 1.3333334
    functionName: AnimationDone
    data: 
    objectReferenceParameter: {fileID: 11400000, guid: b77aad39ce0d7a34e9c496cecb10cf1e,
      type: 2}
    floatParameter: 0
    intParameter: 0
    messageOptions: 0
