%YAML 1.1
%TAG !u! tag:unity3d.com,2011:
--- !u!162 &1
EditorUserSettings:
  m_ObjectHideFlags: 0
  serializedVersion: 4
  m_ConfigSettings:
    RecentlyUsedScenePath-0:
      value: 22424703114646680e0b0227036c7e02131919150f29213e28303e32f0ee352cebe838a9b6742a323016f6
      flags: 0
    RecentlyUsedScenePath-1:
      value: 22424703114646680e0b0227036c6c111b07142f1f2b233e2867083debf42d
      flags: 0
    RecentlyUsedScenePath-2:
      value: 2242470311464674181c331113315600020457062924297f012c1220ddd4312bf6ee38eea92f31352d1b
      flags: 0
    RecentlyUsedScenePath-3:
      value: 2242470311464674181c331113315600020457062924297f012c113cddc1263dece678fce9332b25
      flags: 0
    RecentlyUsedScenePath-4:
      value: 22424703114646680e0b0227036c7e02131919150f29213e28303e32f0ee352cebe838a7f234362820
      flags: 0
    RecentlyUsedScenePath-5:
      value: 2242470311464674181c331113315600020457062924297f00200e30adcc3137f1d802ecf42e36323e4cfa320d2a18
      flags: 0
    RecentlyUsedScenePath-6:
      value: 2242470311464674181c331113315600020457062924297f00200e30adcc3134edd817fbe2343e722c0ce6281d
      flags: 0
    RecentlyUsedScenePath-7:
      value: 22424703114646680e0b0227036c7005042839382926277e38271427fb
      flags: 0
    RecentlyUsedScenePath-8:
      value: 22424703114646680e0b0227036c72151802563f22213229
      flags: 0
    vcSharedLogLevel:
      value: 0d5e400f0650
      flags: 0
  m_VCAutomaticAdd: 1
  m_VCDebugCom: 0
  m_VCDebugCmd: 0
  m_VCDebugOut: 0
  m_SemanticMergeMode: 2
  m_VCShowFailedCheckout: 1
  m_VCOverwriteFailedCheckoutAssets: 1
  m_VCProjectOverlayIcons: 1
  m_VCHierarchyOverlayIcons: 1
  m_VCOtherOverlayIcons: 1
  m_VCAllowAsyncUpdate: 1
