%YAML 1.1
%TAG !u! tag:unity3d.com,2011:
--- !u!74 &7400000
AnimationClip:
  m_ObjectHideFlags: 0
  m_CorrespondingSourceObject: {fileID: 0}
  m_PrefabInstance: {fileID: 0}
  m_PrefabAsset: {fileID: 0}
  m_Name: GatlingGun_Full
  serializedVersion: 6
  m_Legacy: 0
  m_Compressed: 0
  m_UseHighQualityCurve: 1
  m_RotationCurves: []
  m_CompressedRotationCurves: []
  m_EulerCurves: []
  m_PositionCurves:
  - curve:
      serializedVersion: 2
      m_Curve:
      - serializedVersion: 3
        time: 0
        value: {x: -0.17, y: 4.03, z: 0}
        inSlope: {x: 0, y: 0, z: 0}
        outSlope: {x: 0, y: 0, z: 0}
        tangentMode: 0
        weightedMode: 0
        inWeight: {x: 0.33333334, y: 0.33333334, z: 0.33333334}
        outWeight: {x: 0.33333334, y: 0.33333334, z: 0.33333334}
      - serializedVersion: 3
        time: 0.33333334
        value: {x: 0.3, y: 3.65, z: 0}
        inSlope: {x: 0.64, y: -1.2200003, z: 0}
        outSlope: {x: 0.64, y: -1.2200003, z: 0}
        tangentMode: 0
        weightedMode: 0
        inWeight: {x: 0.33333334, y: 0.33333334, z: 0.33333334}
        outWeight: {x: 0.33333334, y: 0.33333334, z: 0.33333334}
      - serializedVersion: 3
        time: 0.5
        value: {x: 0.38, y: 3.42, z: 0}
        inSlope: {x: 0.023225803, y: 0, z: 0}
        outSlope: {x: 0.023225803, y: 0, z: 0}
        tangentMode: 0
        weightedMode: 0
        inWeight: {x: 0.33333334, y: 0.33333334, z: 0.33333334}
        outWeight: {x: 0.33333334, y: 0.33333334, z: 0.33333334}
      - serializedVersion: 3
        time: 5.5
        value: {x: 0.42, y: 3.63, z: 0}
        inSlope: {x: 0.017142858, y: 0.08761905, z: 0}
        outSlope: {x: 0.017142858, y: 0.08761905, z: 0}
        tangentMode: 0
        weightedMode: 0
        inWeight: {x: 0.33333334, y: 0.33333334, z: 0.33333334}
        outWeight: {x: 0.33333334, y: 0.33333334, z: 0.33333334}
      - serializedVersion: 3
        time: 5.75
        value: {x: 0.47, y: 3.88, z: 0}
        inSlope: {x: 0.1920001, y: 0.09599995, z: 0}
        outSlope: {x: 0.1920001, y: 0.09599995, z: 0}
        tangentMode: 0
        weightedMode: 0
        inWeight: {x: 0.33333334, y: 0.33333334, z: 0.33333334}
        outWeight: {x: 0.33333334, y: 0.33333334, z: 0.33333334}
      - serializedVersion: 3
        time: 5.9166665
        value: {x: 0.5, y: 3.89, z: 0}
        inSlope: {x: 0, y: 0, z: 0}
        outSlope: {x: 0, y: 0, z: 0}
        tangentMode: 0
        weightedMode: 0
        inWeight: {x: 0.33333334, y: 0.33333334, z: 0.33333334}
        outWeight: {x: 0.33333334, y: 0.33333334, z: 0.33333334}
      m_PreInfinity: 2
      m_PostInfinity: 2
      m_RotationOrder: 4
    path: MainCollider
  m_ScaleCurves: []
  m_FloatCurves:
  - curve:
      serializedVersion: 2
      m_Curve:
      - serializedVersion: 3
        time: 0
        value: 1.45
        inSlope: 0
        outSlope: 0
        tangentMode: 136
        weightedMode: 0
        inWeight: 0.33333334
        outWeight: 0.33333334
      - serializedVersion: 3
        time: 0.33333334
        value: 1.21
        inSlope: -0.12363637
        outSlope: -0.12363637
        tangentMode: 136
        weightedMode: 0
        inWeight: 0.33333334
        outWeight: 0.33333334
      - serializedVersion: 3
        time: 5.5
        value: 0.77
        inSlope: 0
        outSlope: 0
        tangentMode: 136
        weightedMode: 0
        inWeight: 0.33333334
        outWeight: 0.33333334
      - serializedVersion: 3
        time: 5.75
        value: 1.18
        inSlope: 0
        outSlope: 0
        tangentMode: 136
        weightedMode: 0
        inWeight: 0.33333334
        outWeight: 0.33333334
      m_PreInfinity: 2
      m_PostInfinity: 2
      m_RotationOrder: 4
    attribute: m_Radius
    path: MainCollider
    classID: 58
    script: {fileID: 0}
  m_PPtrCurves:
  - curve:
    - time: 0
      value: {fileID: 21300000, guid: 9ab6d526b51609a458c37c3db0adb920, type: 3}
    - time: 0.083333336
      value: {fileID: 21300000, guid: e54319b573ee23a42bca8d30521b26b2, type: 3}
    - time: 0.16666667
      value: {fileID: 21300000, guid: cad04f42530889d49a11e7e69e5c61c9, type: 3}
    - time: 0.25
      value: {fileID: 21300000, guid: 23793af3c44302f47ad63e0ad1a06a7a, type: 3}
    - time: 0.33333334
      value: {fileID: 21300000, guid: e30f12843945b8b4cb1dcc24e4f17eb9, type: 3}
    - time: 0.41666666
      value: {fileID: 21300000, guid: b7bd32387d4b5724cb21266340d21131, type: 3}
    - time: 0.5
      value: {fileID: 21300000, guid: 53ea038c9df706c40b22796ed9ebaade, type: 3}
    - time: 0.5833333
      value: {fileID: 21300000, guid: 96592a4071f85ee4494a0fef7c356be8, type: 3}
    - time: 0.6666667
      value: {fileID: 21300000, guid: be3baf016f141854eb997285deefbc36, type: 3}
    - time: 0.75
      value: {fileID: 21300000, guid: d33a0e27719b7414992709d48a5a9bf3, type: 3}
    - time: 0.8333333
      value: {fileID: 21300000, guid: 131d2798371cb374588893e00f93e579, type: 3}
    - time: 0.9166667
      value: {fileID: 21300000, guid: e809f55b64c2c434da56dcc952cce6e4, type: 3}
    - time: 1
      value: {fileID: 21300000, guid: ced3accfc085a2a439d18654298a0d71, type: 3}
    - time: 1.0833334
      value: {fileID: 21300000, guid: fcd16ab111b7204478a91fcb83041d2d, type: 3}
    - time: 1.1666666
      value: {fileID: 21300000, guid: 07e299bf771bc394fadb631127a2d0f7, type: 3}
    - time: 1.25
      value: {fileID: 21300000, guid: 0e083e4a2f3c2684683a5f4472b8a713, type: 3}
    - time: 1.3333334
      value: {fileID: 21300000, guid: 53ea038c9df706c40b22796ed9ebaade, type: 3}
    - time: 1.4166666
      value: {fileID: 21300000, guid: 96592a4071f85ee4494a0fef7c356be8, type: 3}
    - time: 1.5
      value: {fileID: 21300000, guid: be3baf016f141854eb997285deefbc36, type: 3}
    - time: 1.5833334
      value: {fileID: 21300000, guid: d33a0e27719b7414992709d48a5a9bf3, type: 3}
    - time: 1.6666666
      value: {fileID: 21300000, guid: 131d2798371cb374588893e00f93e579, type: 3}
    - time: 1.75
      value: {fileID: 21300000, guid: e809f55b64c2c434da56dcc952cce6e4, type: 3}
    - time: 1.8333334
      value: {fileID: 21300000, guid: ced3accfc085a2a439d18654298a0d71, type: 3}
    - time: 1.9166666
      value: {fileID: 21300000, guid: fcd16ab111b7204478a91fcb83041d2d, type: 3}
    - time: 2
      value: {fileID: 21300000, guid: 07e299bf771bc394fadb631127a2d0f7, type: 3}
    - time: 2.0833333
      value: {fileID: 21300000, guid: 0e083e4a2f3c2684683a5f4472b8a713, type: 3}
    - time: 2.1666667
      value: {fileID: 21300000, guid: 53ea038c9df706c40b22796ed9ebaade, type: 3}
    - time: 2.25
      value: {fileID: 21300000, guid: 96592a4071f85ee4494a0fef7c356be8, type: 3}
    - time: 2.3333333
      value: {fileID: 21300000, guid: be3baf016f141854eb997285deefbc36, type: 3}
    - time: 2.4166667
      value: {fileID: 21300000, guid: d33a0e27719b7414992709d48a5a9bf3, type: 3}
    - time: 2.5
      value: {fileID: 21300000, guid: 131d2798371cb374588893e00f93e579, type: 3}
    - time: 2.5833333
      value: {fileID: 21300000, guid: e809f55b64c2c434da56dcc952cce6e4, type: 3}
    - time: 2.6666667
      value: {fileID: 21300000, guid: ced3accfc085a2a439d18654298a0d71, type: 3}
    - time: 2.75
      value: {fileID: 21300000, guid: fcd16ab111b7204478a91fcb83041d2d, type: 3}
    - time: 2.8333333
      value: {fileID: 21300000, guid: 07e299bf771bc394fadb631127a2d0f7, type: 3}
    - time: 2.9166667
      value: {fileID: 21300000, guid: 0e083e4a2f3c2684683a5f4472b8a713, type: 3}
    - time: 3
      value: {fileID: 21300000, guid: 53ea038c9df706c40b22796ed9ebaade, type: 3}
    - time: 3.0833333
      value: {fileID: 21300000, guid: 96592a4071f85ee4494a0fef7c356be8, type: 3}
    - time: 3.1666667
      value: {fileID: 21300000, guid: be3baf016f141854eb997285deefbc36, type: 3}
    - time: 3.25
      value: {fileID: 21300000, guid: d33a0e27719b7414992709d48a5a9bf3, type: 3}
    - time: 3.3333333
      value: {fileID: 21300000, guid: 131d2798371cb374588893e00f93e579, type: 3}
    - time: 3.4166667
      value: {fileID: 21300000, guid: e809f55b64c2c434da56dcc952cce6e4, type: 3}
    - time: 3.5
      value: {fileID: 21300000, guid: ced3accfc085a2a439d18654298a0d71, type: 3}
    - time: 3.5833333
      value: {fileID: 21300000, guid: fcd16ab111b7204478a91fcb83041d2d, type: 3}
    - time: 3.6666667
      value: {fileID: 21300000, guid: 07e299bf771bc394fadb631127a2d0f7, type: 3}
    - time: 3.75
      value: {fileID: 21300000, guid: 0e083e4a2f3c2684683a5f4472b8a713, type: 3}
    - time: 3.8333333
      value: {fileID: 21300000, guid: 53ea038c9df706c40b22796ed9ebaade, type: 3}
    - time: 3.9166667
      value: {fileID: 21300000, guid: 96592a4071f85ee4494a0fef7c356be8, type: 3}
    - time: 4
      value: {fileID: 21300000, guid: be3baf016f141854eb997285deefbc36, type: 3}
    - time: 4.0833335
      value: {fileID: 21300000, guid: d33a0e27719b7414992709d48a5a9bf3, type: 3}
    - time: 4.1666665
      value: {fileID: 21300000, guid: 131d2798371cb374588893e00f93e579, type: 3}
    - time: 4.25
      value: {fileID: 21300000, guid: e809f55b64c2c434da56dcc952cce6e4, type: 3}
    - time: 4.3333335
      value: {fileID: 21300000, guid: ced3accfc085a2a439d18654298a0d71, type: 3}
    - time: 4.4166665
      value: {fileID: 21300000, guid: fcd16ab111b7204478a91fcb83041d2d, type: 3}
    - time: 4.5
      value: {fileID: 21300000, guid: 07e299bf771bc394fadb631127a2d0f7, type: 3}
    - time: 4.5833335
      value: {fileID: 21300000, guid: 0e083e4a2f3c2684683a5f4472b8a713, type: 3}
    - time: 4.6666665
      value: {fileID: 21300000, guid: 53ea038c9df706c40b22796ed9ebaade, type: 3}
    - time: 4.75
      value: {fileID: 21300000, guid: 96592a4071f85ee4494a0fef7c356be8, type: 3}
    - time: 4.8333335
      value: {fileID: 21300000, guid: be3baf016f141854eb997285deefbc36, type: 3}
    - time: 4.9166665
      value: {fileID: 21300000, guid: d33a0e27719b7414992709d48a5a9bf3, type: 3}
    - time: 5
      value: {fileID: 21300000, guid: 131d2798371cb374588893e00f93e579, type: 3}
    - time: 5.0833335
      value: {fileID: 21300000, guid: e809f55b64c2c434da56dcc952cce6e4, type: 3}
    - time: 5.1666665
      value: {fileID: 21300000, guid: ced3accfc085a2a439d18654298a0d71, type: 3}
    - time: 5.25
      value: {fileID: 21300000, guid: fcd16ab111b7204478a91fcb83041d2d, type: 3}
    - time: 5.3333335
      value: {fileID: 21300000, guid: 07e299bf771bc394fadb631127a2d0f7, type: 3}
    - time: 5.4166665
      value: {fileID: 21300000, guid: 0e083e4a2f3c2684683a5f4472b8a713, type: 3}
    - time: 5.5
      value: {fileID: 21300000, guid: b81e67d0ebec1484eb7af160dce7079d, type: 3}
    - time: 5.5833335
      value: {fileID: 21300000, guid: a28b10264f728b940b172e613ed3b0f2, type: 3}
    - time: 5.6666665
      value: {fileID: 21300000, guid: 18ae392f37c8092419e1900d2e69ea58, type: 3}
    - time: 5.75
      value: {fileID: 21300000, guid: bc1b5475dd3992f48950cee8cba1d10b, type: 3}
    - time: 5.8333335
      value: {fileID: 21300000, guid: cf2626d03066b6b43bbb6cf6f780fd1b, type: 3}
    attribute: m_Sprite
    path: 
    classID: 212
    script: {fileID: 0}
  m_SampleRate: 12
  m_WrapMode: 0
  m_Bounds:
    m_Center: {x: 0, y: 0, z: 0}
    m_Extent: {x: 0, y: 0, z: 0}
  m_ClipBindingConstant:
    genericBindings:
    - serializedVersion: 2
      path: 2876880109
      attribute: 1
      script: {fileID: 0}
      typeID: 4
      customType: 0
      isPPtrCurve: 0
    - serializedVersion: 2
      path: 2876880109
      attribute: 1984117138
      script: {fileID: 0}
      typeID: 58
      customType: 0
      isPPtrCurve: 0
    - serializedVersion: 2
      path: 0
      attribute: 0
      script: {fileID: 0}
      typeID: 212
      customType: 23
      isPPtrCurve: 1
    pptrCurveMapping:
    - {fileID: 21300000, guid: 9ab6d526b51609a458c37c3db0adb920, type: 3}
    - {fileID: 21300000, guid: e54319b573ee23a42bca8d30521b26b2, type: 3}
    - {fileID: 21300000, guid: cad04f42530889d49a11e7e69e5c61c9, type: 3}
    - {fileID: 21300000, guid: 23793af3c44302f47ad63e0ad1a06a7a, type: 3}
    - {fileID: 21300000, guid: e30f12843945b8b4cb1dcc24e4f17eb9, type: 3}
    - {fileID: 21300000, guid: b7bd32387d4b5724cb21266340d21131, type: 3}
    - {fileID: 21300000, guid: 53ea038c9df706c40b22796ed9ebaade, type: 3}
    - {fileID: 21300000, guid: 96592a4071f85ee4494a0fef7c356be8, type: 3}
    - {fileID: 21300000, guid: be3baf016f141854eb997285deefbc36, type: 3}
    - {fileID: 21300000, guid: d33a0e27719b7414992709d48a5a9bf3, type: 3}
    - {fileID: 21300000, guid: 131d2798371cb374588893e00f93e579, type: 3}
    - {fileID: 21300000, guid: e809f55b64c2c434da56dcc952cce6e4, type: 3}
    - {fileID: 21300000, guid: ced3accfc085a2a439d18654298a0d71, type: 3}
    - {fileID: 21300000, guid: fcd16ab111b7204478a91fcb83041d2d, type: 3}
    - {fileID: 21300000, guid: 07e299bf771bc394fadb631127a2d0f7, type: 3}
    - {fileID: 21300000, guid: 0e083e4a2f3c2684683a5f4472b8a713, type: 3}
    - {fileID: 21300000, guid: 53ea038c9df706c40b22796ed9ebaade, type: 3}
    - {fileID: 21300000, guid: 96592a4071f85ee4494a0fef7c356be8, type: 3}
    - {fileID: 21300000, guid: be3baf016f141854eb997285deefbc36, type: 3}
    - {fileID: 21300000, guid: d33a0e27719b7414992709d48a5a9bf3, type: 3}
    - {fileID: 21300000, guid: 131d2798371cb374588893e00f93e579, type: 3}
    - {fileID: 21300000, guid: e809f55b64c2c434da56dcc952cce6e4, type: 3}
    - {fileID: 21300000, guid: ced3accfc085a2a439d18654298a0d71, type: 3}
    - {fileID: 21300000, guid: fcd16ab111b7204478a91fcb83041d2d, type: 3}
    - {fileID: 21300000, guid: 07e299bf771bc394fadb631127a2d0f7, type: 3}
    - {fileID: 21300000, guid: 0e083e4a2f3c2684683a5f4472b8a713, type: 3}
    - {fileID: 21300000, guid: 53ea038c9df706c40b22796ed9ebaade, type: 3}
    - {fileID: 21300000, guid: 96592a4071f85ee4494a0fef7c356be8, type: 3}
    - {fileID: 21300000, guid: be3baf016f141854eb997285deefbc36, type: 3}
    - {fileID: 21300000, guid: d33a0e27719b7414992709d48a5a9bf3, type: 3}
    - {fileID: 21300000, guid: 131d2798371cb374588893e00f93e579, type: 3}
    - {fileID: 21300000, guid: e809f55b64c2c434da56dcc952cce6e4, type: 3}
    - {fileID: 21300000, guid: ced3accfc085a2a439d18654298a0d71, type: 3}
    - {fileID: 21300000, guid: fcd16ab111b7204478a91fcb83041d2d, type: 3}
    - {fileID: 21300000, guid: 07e299bf771bc394fadb631127a2d0f7, type: 3}
    - {fileID: 21300000, guid: 0e083e4a2f3c2684683a5f4472b8a713, type: 3}
    - {fileID: 21300000, guid: 53ea038c9df706c40b22796ed9ebaade, type: 3}
    - {fileID: 21300000, guid: 96592a4071f85ee4494a0fef7c356be8, type: 3}
    - {fileID: 21300000, guid: be3baf016f141854eb997285deefbc36, type: 3}
    - {fileID: 21300000, guid: d33a0e27719b7414992709d48a5a9bf3, type: 3}
    - {fileID: 21300000, guid: 131d2798371cb374588893e00f93e579, type: 3}
    - {fileID: 21300000, guid: e809f55b64c2c434da56dcc952cce6e4, type: 3}
    - {fileID: 21300000, guid: ced3accfc085a2a439d18654298a0d71, type: 3}
    - {fileID: 21300000, guid: fcd16ab111b7204478a91fcb83041d2d, type: 3}
    - {fileID: 21300000, guid: 07e299bf771bc394fadb631127a2d0f7, type: 3}
    - {fileID: 21300000, guid: 0e083e4a2f3c2684683a5f4472b8a713, type: 3}
    - {fileID: 21300000, guid: 53ea038c9df706c40b22796ed9ebaade, type: 3}
    - {fileID: 21300000, guid: 96592a4071f85ee4494a0fef7c356be8, type: 3}
    - {fileID: 21300000, guid: be3baf016f141854eb997285deefbc36, type: 3}
    - {fileID: 21300000, guid: d33a0e27719b7414992709d48a5a9bf3, type: 3}
    - {fileID: 21300000, guid: 131d2798371cb374588893e00f93e579, type: 3}
    - {fileID: 21300000, guid: e809f55b64c2c434da56dcc952cce6e4, type: 3}
    - {fileID: 21300000, guid: ced3accfc085a2a439d18654298a0d71, type: 3}
    - {fileID: 21300000, guid: fcd16ab111b7204478a91fcb83041d2d, type: 3}
    - {fileID: 21300000, guid: 07e299bf771bc394fadb631127a2d0f7, type: 3}
    - {fileID: 21300000, guid: 0e083e4a2f3c2684683a5f4472b8a713, type: 3}
    - {fileID: 21300000, guid: 53ea038c9df706c40b22796ed9ebaade, type: 3}
    - {fileID: 21300000, guid: 96592a4071f85ee4494a0fef7c356be8, type: 3}
    - {fileID: 21300000, guid: be3baf016f141854eb997285deefbc36, type: 3}
    - {fileID: 21300000, guid: d33a0e27719b7414992709d48a5a9bf3, type: 3}
    - {fileID: 21300000, guid: 131d2798371cb374588893e00f93e579, type: 3}
    - {fileID: 21300000, guid: e809f55b64c2c434da56dcc952cce6e4, type: 3}
    - {fileID: 21300000, guid: ced3accfc085a2a439d18654298a0d71, type: 3}
    - {fileID: 21300000, guid: fcd16ab111b7204478a91fcb83041d2d, type: 3}
    - {fileID: 21300000, guid: 07e299bf771bc394fadb631127a2d0f7, type: 3}
    - {fileID: 21300000, guid: 0e083e4a2f3c2684683a5f4472b8a713, type: 3}
    - {fileID: 21300000, guid: b81e67d0ebec1484eb7af160dce7079d, type: 3}
    - {fileID: 21300000, guid: a28b10264f728b940b172e613ed3b0f2, type: 3}
    - {fileID: 21300000, guid: 18ae392f37c8092419e1900d2e69ea58, type: 3}
    - {fileID: 21300000, guid: bc1b5475dd3992f48950cee8cba1d10b, type: 3}
    - {fileID: 21300000, guid: cf2626d03066b6b43bbb6cf6f780fd1b, type: 3}
  m_AnimationClipSettings:
    serializedVersion: 2
    m_AdditiveReferencePoseClip: {fileID: 0}
    m_AdditiveReferencePoseTime: 0
    m_StartTime: 0
    m_StopTime: 5.916667
    m_OrientationOffsetY: 0
    m_Level: 0
    m_CycleOffset: 0
    m_HasAdditiveReferencePose: 0
    m_LoopTime: 1
    m_LoopBlend: 0
    m_LoopBlendOrientation: 0
    m_LoopBlendPositionY: 0
    m_LoopBlendPositionXZ: 0
    m_KeepOriginalOrientation: 0
    m_KeepOriginalPositionY: 1
    m_KeepOriginalPositionXZ: 0
    m_HeightFromFeet: 0
    m_Mirror: 0
  m_EditorCurves:
  - curve:
      serializedVersion: 2
      m_Curve:
      - serializedVersion: 3
        time: 0
        value: -0.17
        inSlope: 0
        outSlope: 0
        tangentMode: 136
        weightedMode: 0
        inWeight: 0.33333334
        outWeight: 0.33333334
      - serializedVersion: 3
        time: 0.33333334
        value: 0.3
        inSlope: 0.64
        outSlope: 0.64
        tangentMode: 136
        weightedMode: 0
        inWeight: 0.33333334
        outWeight: 0.33333334
      - serializedVersion: 3
        time: 0.5
        value: 0.38
        inSlope: 0.023225803
        outSlope: 0.023225803
        tangentMode: 136
        weightedMode: 0
        inWeight: 0.33333334
        outWeight: 0.33333334
      - serializedVersion: 3
        time: 5.5
        value: 0.42
        inSlope: 0.017142858
        outSlope: 0.017142858
        tangentMode: 136
        weightedMode: 0
        inWeight: 0.33333334
        outWeight: 0.33333334
      - serializedVersion: 3
        time: 5.75
        value: 0.47
        inSlope: 0.1920001
        outSlope: 0.1920001
        tangentMode: 136
        weightedMode: 0
        inWeight: 0.33333334
        outWeight: 0.33333334
      - serializedVersion: 3
        time: 5.9166665
        value: 0.5
        inSlope: 0
        outSlope: 0
        tangentMode: 136
        weightedMode: 0
        inWeight: 0.33333334
        outWeight: 0.33333334
      m_PreInfinity: 2
      m_PostInfinity: 2
      m_RotationOrder: 4
    attribute: m_LocalPosition.x
    path: MainCollider
    classID: 4
    script: {fileID: 0}
  - curve:
      serializedVersion: 2
      m_Curve:
      - serializedVersion: 3
        time: 0
        value: 4.03
        inSlope: 0
        outSlope: 0
        tangentMode: 136
        weightedMode: 0
        inWeight: 0.33333334
        outWeight: 0.33333334
      - serializedVersion: 3
        time: 0.33333334
        value: 3.65
        inSlope: -1.2200003
        outSlope: -1.2200003
        tangentMode: 136
        weightedMode: 0
        inWeight: 0.33333334
        outWeight: 0.33333334
      - serializedVersion: 3
        time: 0.5
        value: 3.42
        inSlope: 0
        outSlope: 0
        tangentMode: 136
        weightedMode: 0
        inWeight: 0.33333334
        outWeight: 0.33333334
      - serializedVersion: 3
        time: 5.5
        value: 3.63
        inSlope: 0.08761905
        outSlope: 0.08761905
        tangentMode: 136
        weightedMode: 0
        inWeight: 0.33333334
        outWeight: 0.33333334
      - serializedVersion: 3
        time: 5.75
        value: 3.88
        inSlope: 0.09599995
        outSlope: 0.09599995
        tangentMode: 136
        weightedMode: 0
        inWeight: 0.33333334
        outWeight: 0.33333334
      - serializedVersion: 3
        time: 5.9166665
        value: 3.89
        inSlope: 0
        outSlope: 0
        tangentMode: 136
        weightedMode: 0
        inWeight: 0.33333334
        outWeight: 0.33333334
      m_PreInfinity: 2
      m_PostInfinity: 2
      m_RotationOrder: 4
    attribute: m_LocalPosition.y
    path: MainCollider
    classID: 4
    script: {fileID: 0}
  - curve:
      serializedVersion: 2
      m_Curve:
      - serializedVersion: 3
        time: 0
        value: 0
        inSlope: 0
        outSlope: 0
        tangentMode: 136
        weightedMode: 0
        inWeight: 0.33333334
        outWeight: 0.33333334
      - serializedVersion: 3
        time: 0.33333334
        value: 0
        inSlope: 0
        outSlope: 0
        tangentMode: 136
        weightedMode: 0
        inWeight: 0.33333334
        outWeight: 0.33333334
      - serializedVersion: 3
        time: 0.5
        value: 0
        inSlope: 0
        outSlope: 0
        tangentMode: 136
        weightedMode: 0
        inWeight: 0.33333334
        outWeight: 0.33333334
      - serializedVersion: 3
        time: 5.5
        value: 0
        inSlope: 0
        outSlope: 0
        tangentMode: 136
        weightedMode: 0
        inWeight: 0.33333334
        outWeight: 0.33333334
      - serializedVersion: 3
        time: 5.75
        value: 0
        inSlope: 0
        outSlope: 0
        tangentMode: 136
        weightedMode: 0
        inWeight: 0.33333334
        outWeight: 0.33333334
      - serializedVersion: 3
        time: 5.9166665
        value: 0
        inSlope: 0
        outSlope: 0
        tangentMode: 136
        weightedMode: 0
        inWeight: 0.33333334
        outWeight: 0.33333334
      m_PreInfinity: 2
      m_PostInfinity: 2
      m_RotationOrder: 4
    attribute: m_LocalPosition.z
    path: MainCollider
    classID: 4
    script: {fileID: 0}
  - curve:
      serializedVersion: 2
      m_Curve:
      - serializedVersion: 3
        time: 0
        value: 1.45
        inSlope: 0
        outSlope: 0
        tangentMode: 136
        weightedMode: 0
        inWeight: 0.33333334
        outWeight: 0.33333334
      - serializedVersion: 3
        time: 0.33333334
        value: 1.21
        inSlope: -0.12363637
        outSlope: -0.12363637
        tangentMode: 136
        weightedMode: 0
        inWeight: 0.33333334
        outWeight: 0.33333334
      - serializedVersion: 3
        time: 5.5
        value: 0.77
        inSlope: 0
        outSlope: 0
        tangentMode: 136
        weightedMode: 0
        inWeight: 0.33333334
        outWeight: 0.33333334
      - serializedVersion: 3
        time: 5.75
        value: 1.18
        inSlope: 0
        outSlope: 0
        tangentMode: 136
        weightedMode: 0
        inWeight: 0.33333334
        outWeight: 0.33333334
      m_PreInfinity: 2
      m_PostInfinity: 2
      m_RotationOrder: 4
    attribute: m_Radius
    path: MainCollider
    classID: 58
    script: {fileID: 0}
  m_EulerEditorCurves: []
  m_HasGenericRootTransform: 0
  m_HasMotionFloatCurves: 0
  m_Events:
  - time: 0.083333336
    functionName: PlayAudio
    data: 
    objectReferenceParameter: {fileID: 8300000, guid: 47e1af453d566474cbefcac5eaa0facb,
      type: 3}
    floatParameter: 0
    intParameter: 0
    messageOptions: 0
  - time: 0.5833333
    functionName: SpawnGatlingProjectile
    data: 
    objectReferenceParameter: {fileID: 0}
    floatParameter: 0
    intParameter: 0
    messageOptions: 0
  - time: 1
    functionName: SpawnGatlingProjectile
    data: 
    objectReferenceParameter: {fileID: 0}
    floatParameter: 0
    intParameter: 0
    messageOptions: 0
  - time: 1.5
    functionName: SpawnGatlingProjectile
    data: 
    objectReferenceParameter: {fileID: 0}
    floatParameter: 0
    intParameter: 0
    messageOptions: 0
  - time: 2
    functionName: SpawnGatlingProjectile
    data: 
    objectReferenceParameter: {fileID: 0}
    floatParameter: 0
    intParameter: 0
    messageOptions: 0
  - time: 2.5
    functionName: SpawnGatlingProjectile
    data: 
    objectReferenceParameter: {fileID: 0}
    floatParameter: 0
    intParameter: 0
    messageOptions: 0
  - time: 3
    functionName: SpawnGatlingProjectile
    data: 
    objectReferenceParameter: {fileID: 0}
    floatParameter: 0
    intParameter: 0
    messageOptions: 0
  - time: 3.5
    functionName: SpawnGatlingProjectile
    data: 
    objectReferenceParameter: {fileID: 0}
    floatParameter: 0
    intParameter: 0
    messageOptions: 0
  - time: 4
    functionName: SpawnGatlingProjectile
    data: 
    objectReferenceParameter: {fileID: 0}
    floatParameter: 0
    intParameter: 0
    messageOptions: 0
  - time: 4.5
    functionName: SpawnGatlingProjectile
    data: 
    objectReferenceParameter: {fileID: 0}
    floatParameter: 0
    intParameter: 0
    messageOptions: 0
  - time: 5
    functionName: SpawnGatlingProjectile
    data: 
    objectReferenceParameter: {fileID: 0}
    floatParameter: 0
    intParameter: 0
    messageOptions: 0
  - time: 5.1666665
    functionName: PlayAudio
    data: 
    objectReferenceParameter: {fileID: 8300000, guid: e69def046c2df5c4dbca11d05d9095ba,
      type: 3}
    floatParameter: 0
    intParameter: 0
    messageOptions: 0
  - time: 5.75
    functionName: AnimationDone
    data: 
    objectReferenceParameter: {fileID: 11400000, guid: 3bf299c2254b7124a89d044cef702933,
      type: 2}
    floatParameter: 0
    intParameter: 0
    messageOptions: 0
