%YAML 1.1
%TAG !u! tag:unity3d.com,2011:
--- !u!74 &7400000
AnimationClip:
  m_ObjectHideFlags: 0
  m_CorrespondingSourceObject: {fileID: 0}
  m_PrefabInstance: {fileID: 0}
  m_PrefabAsset: {fileID: 0}
  m_Name: Run
  serializedVersion: 6
  m_Legacy: 0
  m_Compressed: 0
  m_UseHighQualityCurve: 1
  m_RotationCurves: []
  m_CompressedRotationCurves: []
  m_EulerCurves: []
  m_PositionCurves: []
  m_ScaleCurves: []
  m_FloatCurves: []
  m_PPtrCurves:
  - curve:
    - time: 0
      value: {fileID: 21300000, guid: 747ba9b8e5eacc846b69acc976072089, type: 3}
    - time: 0.083333336
      value: {fileID: 21300000, guid: 63b1f7a5bccbcfd438ab5fd127a96275, type: 3}
    - time: 0.16666667
      value: {fileID: 21300000, guid: 65b82cbc29daa194d9b499abaf7f2026, type: 3}
    - time: 0.25
      value: {fileID: 21300000, guid: 872b92ea9cabe5d488d331133a91c4a0, type: 3}
    - time: 0.33333334
      value: {fileID: 21300000, guid: 771c57fd19c93544bbdbcf79affcd724, type: 3}
    - time: 0.41666666
      value: {fileID: 21300000, guid: cf833b15949c9f742811b26e7041a06a, type: 3}
    - time: 0.5
      value: {fileID: 21300000, guid: ae1f718372d95ea4d85d04cd0ab4f7bd, type: 3}
    - time: 0.5833333
      value: {fileID: 21300000, guid: 0ea3155795b2e73499dccd28f912167e, type: 3}
    - time: 0.6666667
      value: {fileID: 21300000, guid: 7ae5a3ee6a761454d9787a46a230a6b7, type: 3}
    - time: 0.75
      value: {fileID: 21300000, guid: 15c1a320b59b5744191c4c32302a9c87, type: 3}
    - time: 0.8333333
      value: {fileID: 21300000, guid: eba718065d8ef6949beb04c1b27a07f9, type: 3}
    - time: 0.9166667
      value: {fileID: 21300000, guid: 51ca4080aca18f04dbbb0ed6310ee463, type: 3}
    - time: 1
      value: {fileID: 21300000, guid: ec9ec1f05b575434d80c874d5ae17972, type: 3}
    - time: 1.0833334
      value: {fileID: 21300000, guid: 0e757d56ce0976e4b806c5f80af3e335, type: 3}
    - time: 1.1666666
      value: {fileID: 21300000, guid: 635c11560a3531a41bec063546245bef, type: 3}
    - time: 1.25
      value: {fileID: 21300000, guid: c1425a525bafbf5408a19e3dce6d64ed, type: 3}
    attribute: m_Sprite
    path: 
    classID: 212
    script: {fileID: 0}
  m_SampleRate: 12
  m_WrapMode: 0
  m_Bounds:
    m_Center: {x: 0, y: 0, z: 0}
    m_Extent: {x: 0, y: 0, z: 0}
  m_ClipBindingConstant:
    genericBindings:
    - serializedVersion: 2
      path: 0
      attribute: 0
      script: {fileID: 0}
      typeID: 212
      customType: 23
      isPPtrCurve: 1
    pptrCurveMapping:
    - {fileID: 21300000, guid: 747ba9b8e5eacc846b69acc976072089, type: 3}
    - {fileID: 21300000, guid: 63b1f7a5bccbcfd438ab5fd127a96275, type: 3}
    - {fileID: 21300000, guid: 65b82cbc29daa194d9b499abaf7f2026, type: 3}
    - {fileID: 21300000, guid: 872b92ea9cabe5d488d331133a91c4a0, type: 3}
    - {fileID: 21300000, guid: 771c57fd19c93544bbdbcf79affcd724, type: 3}
    - {fileID: 21300000, guid: cf833b15949c9f742811b26e7041a06a, type: 3}
    - {fileID: 21300000, guid: ae1f718372d95ea4d85d04cd0ab4f7bd, type: 3}
    - {fileID: 21300000, guid: 0ea3155795b2e73499dccd28f912167e, type: 3}
    - {fileID: 21300000, guid: 7ae5a3ee6a761454d9787a46a230a6b7, type: 3}
    - {fileID: 21300000, guid: 15c1a320b59b5744191c4c32302a9c87, type: 3}
    - {fileID: 21300000, guid: eba718065d8ef6949beb04c1b27a07f9, type: 3}
    - {fileID: 21300000, guid: 51ca4080aca18f04dbbb0ed6310ee463, type: 3}
    - {fileID: 21300000, guid: ec9ec1f05b575434d80c874d5ae17972, type: 3}
    - {fileID: 21300000, guid: 0e757d56ce0976e4b806c5f80af3e335, type: 3}
    - {fileID: 21300000, guid: 635c11560a3531a41bec063546245bef, type: 3}
    - {fileID: 21300000, guid: c1425a525bafbf5408a19e3dce6d64ed, type: 3}
  m_AnimationClipSettings:
    serializedVersion: 2
    m_AdditiveReferencePoseClip: {fileID: 0}
    m_AdditiveReferencePoseTime: 0
    m_StartTime: 0
    m_StopTime: 1.3333334
    m_OrientationOffsetY: 0
    m_Level: 0
    m_CycleOffset: 0
    m_HasAdditiveReferencePose: 0
    m_LoopTime: 1
    m_LoopBlend: 0
    m_LoopBlendOrientation: 0
    m_LoopBlendPositionY: 0
    m_LoopBlendPositionXZ: 0
    m_KeepOriginalOrientation: 0
    m_KeepOriginalPositionY: 1
    m_KeepOriginalPositionXZ: 0
    m_HeightFromFeet: 0
    m_Mirror: 0
  m_EditorCurves: []
  m_EulerEditorCurves: []
  m_HasGenericRootTransform: 0
  m_HasMotionFloatCurves: 0
  m_Events: []
