%YAML 1.1
%TAG !u! tag:unity3d.com,2011:
--- !u!114 &11400000
MonoBehaviour:
  m_ObjectHideFlags: 0
  m_CorrespondingSourceObject: {fileID: 0}
  m_PrefabInstance: {fileID: 0}
  m_PrefabAsset: {fileID: 0}
  m_GameObject: {fileID: 0}
  m_Enabled: 1
  m_EditorHideFlags: 0
  m_Script: {fileID: 11500000, guid: b85bec99d5614b2fbb695f5b0543d895, type: 3}
  m_Name: ActivePhase03
  m_EditorClassIdentifier: 
  _id: {fileID: 0}
  _normalizedHPThreshold: 0.5
  _phaseFSM: {fileID: 0}
